^D:\CLOUD\PROJECTS\LIPPMAN\COPYCONTROL1\COPYCONTROL1\MAIN.CPP
D:\CLOUD\PROJECTS\LIPPMAN\COPYCONTROL1\COPYCONTROL1\DEBUG\VC141.PDB
D:\CLOUD\PROJECTS\LIPPMAN\COPYCONTROL1\COPYCONTROL1\DEBUG\VC141.IDB
