^D:\CLOUD\PROJECTS\LIPPMAN\FINALOVERRIDE\FINALOVERRIDE\MAIN.CPP
/c /ZI /nologo /W3 /WX- /diagnostics:classic /sdl /Od /Oy- /D WIN32 /D _DEBUG /D _CONSOLE /D _UNICODE /D UNICODE /Gm- /EHsc /RTC1 /MDd /GS /fp:precise /permissive- /Zc:wchar_t /Zc:forScope /Zc:inline /Fo"DEBUG\\" /Fd"DEBUG\VC141.PDB" /Gd /TP /analyze- /FC D:\CLOUD\PROJECTS\LIPPMAN\FINALOVERRIDE\FINALOVERRIDE\MAIN.CPP
^D:\CLOUD\PROJECTS\LIPPMAN\FINALOVERRIDE\FINALOVERRIDE\MAIN.C
/c /ZI /nologo /W3 /WX- /diagnostics:classic /sdl /Od /Oy- /D WIN32 /D _DEBUG /D _CONSOLE /D _UNICODE /D UNICODE /Gm- /EHsc /RTC1 /MDd /GS /fp:precise /permissive- /Zc:wchar_t /Zc:forScope /Zc:inline /Fo"DEBUG\\" /Fd"DEBUG\VC141.PDB" /Gd /TC /analyze- /FC D:\CLOUD\PROJECTS\LIPPMAN\FINALOVERRIDE\FINALOVERRIDE\MAIN.C
